{
  "languageModel": {
    "types": [
      {
        "name": "Dimensions",
        "values": [
          {
            "id": null,
            "name": {
              "value": "Campaign",
              "synonyms": [
                "campaign",
                "campaigns"
              ]
            }
          },
          {
            "id": null,
            "name": {
              "value": "Channel",
              "synonyms": [
                "media channels"
              ]
            }
          },
          {
            "id": null,
            "name": {
              "value": "Country",
              "synonyms": [
                "country",
                "market",
                "Market"
              ]
            }
          }
        ]
      },
      {
        "name": "EurosportCampaign",
        "values": [
          {
            "id": null,
            "name": {
              "value": "SquashPsaworldtour",
              "synonyms": [
                "Squash",
                "the Squash"
              ]
            }
          },
          {
            "id": null,
            "name": {
              "value": "FootballBundesliga",
              "synonyms": [
                "Bundesliga"
              ]
            }
          },
          {
            "id": null,
            "name": {
              "value": "BasketballLega",
              "synonyms": [
                "Lega Basket"
              ]
            }
          },
          {
            "id": null,
            "name": {
              "value": "WintersportsOlympics",
              "synonyms": [
                "Winter Olympics"
              ]
            }
          }
        ]
      },
      {
        "name": "EurosportMarkets",
        "values": [
          {
            "id": null,
            "name": {
              "value": "DE",
              "synonyms": [
                "Germany",
                "German"
              ]
            }
          },
          {
            "id": null,
            "name": {
              "value": "NO",
              "synonyms": [
                "Norway",
                "Norwegian"
              ]
            }
          },
          {
            "id": null,
            "name": {
              "value": "FI",
              "synonyms": [
                "Finland",
                "Finnish"
              ]
            }
          },
          {
            "id": null,
            "name": {
              "value": "BE",
              "synonyms": [
                "Belgium",
                "Flemish"
              ]
            }
          },
          {
            "id": null,
            "name": {
              "value": "PT",
              "synonyms": [
                "Portugal",
                "Portuguese"
              ]
            }
          },
          {
            "id": null,
            "name": {
              "value": "BG",
              "synonyms": [
                "Bulgaria",
                "Bulgarian"
              ]
            }
          },
          {
            "id": null,
            "name": {
              "value": "DK",
              "synonyms": [
                "Denmark"
              ]
            }
          },
          {
            "id": null,
            "name": {
              "value": "LT",
              "synonyms": [
                "Lithuania",
                "Lithuanian"
              ]
            }
          },
          {
            "id": null,
            "name": {
              "value": "HR",
              "synonyms": [
                "Croatia",
                "Croatian"
              ]
            }
          },
          {
            "id": null,
            "name": {
              "value": "LV",
              "synonyms": [
                "Latvia",
                "Latvian"
              ]
            }
          },
          {
            "id": null,
            "name": {
              "value": "FR",
              "synonyms": [
                "France",
                "French"
              ]
            }
          },
          {
            "id": null,
            "name": {
              "value": "HU",
              "synonyms": [
                "Hungary",
                "Hungarian"
              ]
            }
          },
          {
            "id": null,
            "name": {
              "value": "SE",
              "synonyms": [
                "Sweden",
                "Swedish"
              ]
            }
          },
          {
            "id": null,
            "name": {
              "value": "UK",
              "synonyms": [
                "United Kingdom",
                "GB",
                "British"
              ]
            }
          },
          {
            "id": null,
            "name": {
              "value": "SI",
              "synonyms": [
                "Slovenia",
                "Slovenian"
              ]
            }
          },
          {
            "id": null,
            "name": {
              "value": "IE",
              "synonyms": [
                "Ireland",
                "Irish"
              ]
            }
          },
          {
            "id": null,
            "name": {
              "value": "EE",
              "synonyms": [
                "Estonia",
                "Estonian"
              ]
            }
          },
          {
            "id": null,
            "name": {
              "value": "Nordics",
              "synonyms": [
                "the Nordics",
                "Scandinavia"
              ]
            }
          },
          {
            "id": null,
            "name": {
              "value": "CH",
              "synonyms": [
                "Switzerland",
                "Swiss"
              ]
            }
          },
          {
            "id": null,
            "name": {
              "value": "EL",
              "synonyms": [
                "Greece",
                "Greek"
              ]
            }
          },
          {
            "id": null,
            "name": {
              "value": "MT",
              "synonyms": [
                "Malta",
                "Maltese"
              ]
            }
          },
          {
            "id": null,
            "name": {
              "value": "IS",
              "synonyms": [
                "Iceland"
              ]
            }
          },
          {
            "id": null,
            "name": {
              "value": "IT",
              "synonyms": [
                "Italy",
                "Italian"
              ]
            }
          },
          {
            "id": null,
            "name": {
              "value": "ES",
              "synonyms": [
                "Spain",
                "Spanish"
              ]
            }
          },
          {
            "id": null,
            "name": {
              "value": "AT",
              "synonyms": [
                "Austria",
                "Austrian"
              ]
            }
          },
          {
            "id": null,
            "name": {
              "value": "CY",
              "synonyms": [
                "Cyprus",
                "Cypriotic"
              ]
            }
          },
          {
            "id": null,
            "name": {
              "value": "CZ",
              "synonyms": [
                "Czech Republic",
                "Czech"
              ]
            }
          },
          {
            "id": null,
            "name": {
              "value": "PL",
              "synonyms": [
                "Poland",
                "Polish"
              ]
            }
          },
          {
            "id": null,
            "name": {
              "value": "RO",
              "synonyms": [
                "Romania",
                "Romanian"
              ]
            }
          },
          {
            "id": null,
            "name": {
              "value": "LI",
              "synonyms": [
                "Liechtenstein"
              ]
            }
          },
          {
            "id": null,
            "name": {
              "value": "NL",
              "synonyms": [
                "Netherlands",
                "Dutch"
              ]
            }
          }
        ]
      },
      {
        "name": "ExtremeFavourabilities",
        "values": [
          {
            "id": null,
            "name": {
              "value": "most",
              "synonyms": [
                "biggest"
              ]
            }
          },
          {
            "id": null,
            "name": {
              "value": "least",
              "synonyms": [
                "smallest",
                "fewest"
              ]
            }
          },
          {
            "id": null,
            "name": {
              "value": "best",
              "synonyms": []
            }
          },
          {
            "id": null,
            "name": {
              "value": "worst",
              "synonyms": []
            }
          }
        ]
      },
      {
        "name": "MediaPlatforms",
        "values": [
          {
            "id": null,
            "name": {
              "value": "Paid Search",
              "synonyms": [
                "paid search"
              ]
            }
          },
          {
            "id": null,
            "name": {
              "value": "Paid Social",
              "synonyms": [
                "paid social",
                "facebook"
              ]
            }
          },
          {
            "id": null,
            "name": {
              "value": "Display",
              "synonyms": [
                "DCM",
                "display"
              ]
            }
          }
        ]
      },
      {
        "name": "Metrics",
        "values": [
          {
            "id": null,
            "name": {
              "value": "CTR",
              "synonyms": [
                "CTR",
                "click-through-rate",
                "click-through rate",
                "click through rate"
              ]
            }
          },
          {
            "id": null,
            "name": {
              "value": "SAC",
              "synonyms": [
                "CPA",
                "sack",
                "s a c",
                "spend per subscription",
                "did each subscription cost me"
              ]
            }
          },
          {
            "id": null,
            "name": {
              "value": "Subscriptions",
              "synonyms": [
                "Subscriptions",
                "Conversions",
                "Subs"
              ]
            }
          },
          {
            "id": null,
            "name": {
              "value": "CPC",
              "synonyms": [
                "cost per click",
                "cpc"
              ]
            }
          },
          {
            "id": null,
            "name": {
              "value": "Spend",
              "synonyms": [
                "spend"
              ]
            }
          },
          {
            "id": null,
            "name": {
              "value": "CVR",
              "synonyms": [
                "Conversion rate"
              ]
            }
          }
        ]
      },
      {
        "name": "statusCheck",
        "values": [
          {
            "id": null,
            "name": {
              "value": "How are you",
              "synonyms": [
                "Hows it going"
              ]
            }
          }
        ]
      }
    ],
    "intents": [
      {
        "name": "AMAZON.CancelIntent",
        "samples": []
      },
      {
        "name": "AMAZON.HelpIntent",
        "samples": []
      },
      {
        "name": "AMAZON.PauseIntent",
        "samples": []
      },
      {
        "name": "AMAZON.ResumeIntent",
        "samples": []
      },
      {
        "name": "AMAZON.StopIntent",
        "samples": []
      },
      {
        "name": "FindBest",
        "samples": [
          "Which {Dimension} had the {Extreme} {Metric} {Date}",
          "What is the {Extreme} performing {Dimension}",
          "What is the {Extreme} performing {Dimension} for {Campaign}",
          "Which {Dimension} has the {Extreme} {Metric} in {Date}",
          "{Extreme} {Dimension} {Date} by {Metric}",
          "{Extreme} performing {Dimension} {Date} by {Metric}",
          "What {Dimension} had the {Extreme} {Metric}",
          "Which {Dimension} had the {Extreme} {Metric}",
          "What was the {Extreme} {Dimension} {Date} by {Metric}",
          "What was the {Extreme} {Dimension} {Date}"
        ],
        "slots": [
          {
            "name": "Dimension",
            "type": "Dimensions"
          },
          {
            "name": "Extreme",
            "type": "ExtremeFavourabilities",
            "samples": [
              "{Extreme}",
              "I want the {Extreme} {Dimension}"
            ]
          },
          {
            "name": "Metric",
            "type": "Metrics"
          },
          {
            "name": "Campaign",
            "type": "EurosportCampaign"
          },
          {
            "name": "Date",
            "type": "AMAZON.DATE"
          },
          {
            "name": "Market",
            "type": "EurosportMarkets"
          }
        ]
      },
      {
        "name": "Greeting",
        "samples": [
          "Hi {statusCheck}",
          "Hi",
          "Hey",
          "Hi Sally",
          "Hello"
        ],
        "slots": [
          {
            "name": "statusCheck",
            "type": "statusCheck"
          }
        ]
      },
      {
        "name": "SingleMetric",
        "samples": [
          "What is the total {Metric} for {Campaign} by {Dimension}",
          "What was the {Metric} in {Market} {Date}",
          "How much was {Metric} in {Market} {MarketTwo} and {MarketThree} {Date} by {Dimension}",
          "How much has been {Metric} for {Campaign} and {CampaignTwo} in {Market}",
          "What was the {Metric} in the {Market} and {MarketTwo} for {Campaign}",
          "How much was {Metric} in {Market} for {Campaign} across {Media} and {MediaTwo}",
          "What have I {Metric} in {Market}",
          "How much is my {Metric}",
          "What is the total {Metric} for the {Campaign}",
          "How much has been {Metric} for the {Campaign}",
          "What was the total {Media} and {MediaTwo} {Metric} for {Campaign} in {Market}",
          "How much {Media} {Metric} has there been for {Campaign}",
          "What was the {Metric} in {Market} for {Campaign}",
          "How much has been {Metric} for {Campaign} and {CampaignTwo} in {Market} in {Date}",
          "What have I {Metric} in {Market} in {Date}",
          "What is the total {Metric} for the {Campaign} in {Date}",
          "How much was {Metric} in {Market} {Date}",
          "What was {Metric} in {Market} {Date}",
          "{Metric} in {Campaign} {Market} {Date}",
          "What was the {Metric} in {Market} {Date} by {Dimension}",
          "What is the breakdown of {Metric} by {Dimension} in {Campaign}",
          "How much was {Metric} in {Market} {MarketTwo} {MarketThree} {Date} by {Dimension}",
          "How much was {Metric} in {Market} {MarketTwo} {MarketThree} {Date} by {Dimension} and {DimensionTwo}",
          "How much was {Metric} in {Market} and {MarketTwo} and {MarketThree} {Date} by {Dimension} and {DimensionTwo}",
          "How many {Metric} from {Market} and the {MarketTwo}",
          "How many {Metric} are because of {Campaign}",
          "How many {Metric} have come from {Market} from the {Campaign}",
          "What was the breakdown of {Metric} in {Market} {Date}",
          "What is the total {Metric}",
          "What was the {Metric} for {Media} {Date}",
          "What was the {Metric} for {Campaign} {Date} by {Media}",
          "What was the total {Metric} {Date}"
        ],
        "slots": [
          {
            "name": "Campaign",
            "type": "EurosportCampaign"
          },
          {
            "name": "CampaignTwo",
            "type": "EurosportCampaign"
          },
          {
            "name": "Date",
            "type": "AMAZON.DATE"
          },
          {
            "name": "Dimension",
            "type": "Dimensions"
          },
          {
            "name": "DimensionTwo",
            "type": "Dimensions"
          },
          {
            "name": "Market",
            "type": "EurosportMarkets"
          },
          {
            "name": "MarketThree",
            "type": "EurosportMarkets"
          },
          {
            "name": "MarketTwo",
            "type": "EurosportMarkets"
          },
          {
            "name": "Media",
            "type": "MediaPlatforms"
          },
          {
            "name": "MediaTwo",
            "type": "MediaPlatforms"
          },
          {
            "name": "Metric",
            "type": "Metrics"
          }
        ]
      }
    ],
    "invocationName": "signal"
  },
  "prompts": [
    {
      "id": "Elicit.Intent-FindBest.IntentSlot-Dimension",
      "variations": [
        {
          "type": "PlainText",
          "value": "Best performing campaign, country or channel?"
        }
      ]
    },
    {
      "id": "Elicit.Intent-FindBest.IntentSlot-Extreme",
      "variations": [
        {
          "type": "PlainText",
          "value": "Are you after the best or worst performing {Dimension}?"
        }
      ]
    },
    {
      "id": "Elicit.Intent-FindBest.IntentSlot-Metric",
      "variations": [
        {
          "type": "PlainText",
          "value": "By what metric?"
        }
      ]
    },
    {
      "id": "Elicit.Intent-Greeting.IntentSlot-statusCheck",
      "variations": [
        {
          "type": "PlainText",
          "value": "e.g. What city?"
        }
      ]
    },
    {
      "id": "Elicit.Intent-SingleMetric.IntentSlot-Campaign",
      "variations": [
        {
          "type": "PlainText",
          "value": "Which campaign?"
        }
      ]
    },
    {
      "id": "Elicit.Intent-SingleMetric.IntentSlot-CampaignTwo",
      "variations": [
        {
          "type": "PlainText",
          "value": "What other campaign?"
        }
      ]
    },
    {
      "id": "Elicit.Intent-SingleMetric.IntentSlot-Date",
      "variations": [
        {
          "type": "PlainText",
          "value": "When?"
        }
      ]
    },
    {
      "id": "Elicit.Intent-SingleMetric.IntentSlot-Dimension",
      "variations": [
        {
          "type": "PlainText",
          "value": "Broken down by what?"
        }
      ]
    },
    {
      "id": "Elicit.Intent-SingleMetric.IntentSlot-DimensionTwo",
      "variations": [
        {
          "type": "PlainText",
          "value": "What other dimension?"
        }
      ]
    },
    {
      "id": "Elicit.Intent-SingleMetric.IntentSlot-Market",
      "variations": [
        {
          "type": "PlainText",
          "value": "Which country?"
        }
      ]
    },
    {
      "id": "Elicit.Intent-SingleMetric.IntentSlot-MarketThree",
      "variations": [
        {
          "type": "PlainText",
          "value": "Which third market?"
        }
      ]
    },
    {
      "id": "Elicit.Intent-SingleMetric.IntentSlot-MarketTwo",
      "variations": [
        {
          "type": "PlainText",
          "value": "Which second market?"
        }
      ]
    },
    {
      "id": "Elicit.Intent-SingleMetric.IntentSlot-Media",
      "variations": [
        {
          "type": "PlainText",
          "value": "Which channel?"
        }
      ]
    },
    {
      "id": "Elicit.Intent-SingleMetric.IntentSlot-MediaTwo",
      "variations": [
        {
          "type": "PlainText",
          "value": "Which other channel?"
        }
      ]
    },
    {
      "id": "Elicit.Intent-SingleMetric.IntentSlot-Metric",
      "variations": [
        {
          "type": "PlainText",
          "value": "What metric?"
        }
      ]
    }
  ],
  "dialog": {
    "intents": [
      {
        "name": "FindBest",
        "confirmationRequired": false,
        "prompts": {},
        "slots": [
          {
            "name": "Dimension",
            "type": "Dimensions",
            "elicitationRequired": true,
            "confirmationRequired": false,
            "prompts": {
              "elicitation": "Elicit.Intent-FindBest.IntentSlot-Dimension"
            }
          },
          {
            "name": "Extreme",
            "type": "ExtremeFavourabilities",
            "elicitationRequired": true,
            "confirmationRequired": false,
            "prompts": {
              "elicitation": "Elicit.Intent-FindBest.IntentSlot-Extreme"
            }
          },
          {
            "name": "Metric",
            "type": "Metrics",
            "elicitationRequired": true,
            "confirmationRequired": false,
            "prompts": {
              "elicitation": "Elicit.Intent-FindBest.IntentSlot-Metric"
            }
          },
          {
            "name": "Campaign",
            "type": "EurosportCampaign",
            "elicitationRequired": false,
            "confirmationRequired": false,
            "prompts": {}
          },
          {
            "name": "Date",
            "type": "AMAZON.DATE",
            "elicitationRequired": false,
            "confirmationRequired": false,
            "prompts": {}
          },
          {
            "name": "Market",
            "type": "EurosportMarkets",
            "elicitationRequired": false,
            "confirmationRequired": false,
            "prompts": {}
          }
        ]
      },
      {
        "name": "Greeting",
        "confirmationRequired": false,
        "prompts": {},
        "slots": [
          {
            "name": "statusCheck",
            "type": "statusCheck",
            "elicitationRequired": true,
            "confirmationRequired": false,
            "prompts": {
              "elicitation": "Elicit.Intent-Greeting.IntentSlot-statusCheck"
            }
          }
        ]
      },
      {
        "name": "SingleMetric",
        "confirmationRequired": false,
        "prompts": {},
        "slots": [
          {
            "name": "Campaign",
            "type": "EurosportCampaign",
            "elicitationRequired": true,
            "confirmationRequired": false,
            "prompts": {
              "elicitation": "Elicit.Intent-SingleMetric.IntentSlot-Campaign"
            }
          },
          {
            "name": "CampaignTwo",
            "type": "EurosportCampaign",
            "elicitationRequired": true,
            "confirmationRequired": false,
            "prompts": {
              "elicitation": "Elicit.Intent-SingleMetric.IntentSlot-CampaignTwo"
            }
          },
          {
            "name": "Date",
            "type": "AMAZON.DATE",
            "elicitationRequired": true,
            "confirmationRequired": false,
            "prompts": {
              "elicitation": "Elicit.Intent-SingleMetric.IntentSlot-Date"
            }
          },
          {
            "name": "Dimension",
            "type": "Dimensions",
            "elicitationRequired": true,
            "confirmationRequired": false,
            "prompts": {
              "elicitation": "Elicit.Intent-SingleMetric.IntentSlot-Dimension"
            }
          },
          {
            "name": "DimensionTwo",
            "type": "Dimensions",
            "elicitationRequired": true,
            "confirmationRequired": false,
            "prompts": {
              "elicitation": "Elicit.Intent-SingleMetric.IntentSlot-DimensionTwo"
            }
          },
          {
            "name": "Market",
            "type": "EurosportMarkets",
            "elicitationRequired": true,
            "confirmationRequired": false,
            "prompts": {
              "elicitation": "Elicit.Intent-SingleMetric.IntentSlot-Market"
            }
          },
          {
            "name": "MarketThree",
            "type": "EurosportMarkets",
            "elicitationRequired": true,
            "confirmationRequired": false,
            "prompts": {
              "elicitation": "Elicit.Intent-SingleMetric.IntentSlot-MarketThree"
            }
          },
          {
            "name": "MarketTwo",
            "type": "EurosportMarkets",
            "elicitationRequired": true,
            "confirmationRequired": false,
            "prompts": {
              "elicitation": "Elicit.Intent-SingleMetric.IntentSlot-MarketTwo"
            }
          },
          {
            "name": "Media",
            "type": "MediaPlatforms",
            "elicitationRequired": true,
            "confirmationRequired": false,
            "prompts": {
              "elicitation": "Elicit.Intent-SingleMetric.IntentSlot-Media"
            }
          },
          {
            "name": "MediaTwo",
            "type": "MediaPlatforms",
            "elicitationRequired": true,
            "confirmationRequired": false,
            "prompts": {
              "elicitation": "Elicit.Intent-SingleMetric.IntentSlot-MediaTwo"
            }
          },
          {
            "name": "Metric",
            "type": "Metrics",
            "elicitationRequired": true,
            "confirmationRequired": false,
            "prompts": {
              "elicitation": "Elicit.Intent-SingleMetric.IntentSlot-Metric"
            }
          }
        ]
      }
    ]
  }
}
