{
  "manifest": {
    "publishingInformation": {
      "locales": {
        "en-GB": {
          "name": "Media Assistant"
        },
        "distributionMode": "PRIVATE"
      },
      "isAvailableWorldwide": true
    },
    "apis": {
      "custom": {
        "endpoint": {
          "uri": "arn:aws:lambda:eu-west-1:452873690166:function:mlmdata-MediaAssistant"
        }
      }
    },
    "manifestVersion": "1.0"
  }
}
